<?xml version="1.0" standalone="no"?>
<!DOCTYPE svg PUBLIC "-//W3C//DTD SVG 1.1//EN" "http://www.w3.org/Graphics/SVG/1.1/DTD/svg11.dtd" >
<svg xmlns="http://www.w3.org/2000/svg">
<metadata>Generated by IcoMoon</metadata>
<defs>
<font id="Toto-icons" horiz-adv-x="1024">
<font-face units-per-em="1024" ascent="960" descent="-64" />
<missing-glyph horiz-adv-x="1024" />
<glyph unicode="&#x20;" horiz-adv-x="512" d="" />
<glyph unicode="&#xe900;" glyph-name="arrow" horiz-adv-x="2816" d="M2024.885-64c-66.097 0.064-119.654 53.66-119.654 119.766 0 29.796 10.881 57.050 28.885 78.007l-0.133-0.159 499.784 584.458c-688.056-5.988-2209.924-16.767-2333.762 4.072-57.164 9.764-100.129 58.939-100.129 118.149 0 66.148 53.623 119.771 119.771 119.771 6.937 0 13.737-0.59 20.351-1.722l-0.709 0.1c116.772-15.929 1628.819-7.545 2555.449 1.557h1.198c0.002 0 0.005 0 0.008 0 66.145 0 119.766-53.621 119.766-119.766 0-29.796-10.881-57.050-28.885-78.007l0.133 0.159-670.69-784.468c-22.098-25.725-54.665-41.919-91.015-41.919-0.129 0-0.258 0-0.387 0.001h0.020z" />
<glyph unicode="&#xe901;" glyph-name="linkedin" horiz-adv-x="1092" d="M1092.288 331.968v-395.968h-233.792v369.472c0 92.864-33.856 156.16-118.528 156.16-54.736-0.168-101.372-34.666-119.518-83.085l-0.29-0.883c-5.017-14.548-7.915-31.312-7.915-48.752 0-2.549 0.062-5.084 0.184-7.603l-0.014 0.355v-385.664h-234.368s3.136 625.728 0 691.2h234.112v-97.856l-1.6-2.24h1.6v2.24c41.408 68.934 115.779 114.346 200.757 114.346 3.673 0 7.326-0.085 10.957-0.253l-0.515 0.019c153.472-0.576 268.928-99.328 268.928-311.488zM132.864 959.808c-3.409 0.339-7.368 0.533-11.372 0.533-62.837 0-114.543-47.663-120.935-108.808l-0.045-0.525c-0.252-2.923-0.396-6.325-0.396-9.76 0-63.247 48.774-115.102 110.761-120.005l0.419-0.027c2.758-0.214 5.973-0.337 9.216-0.337s6.458 0.122 9.639 0.362l-0.423-0.026h1.536c3.2-0.299 6.921-0.47 10.681-0.47 63.019 0 114.841 47.938 120.989 109.337l0.041 0.509c0.218 2.717 0.342 5.882 0.342 9.077 0 63.489-49.122 115.505-111.433 120.116l-0.398 0.024c-2.787 0.214-6.035 0.336-9.312 0.336s-6.525-0.122-9.741-0.361l0.429 0.026zM14.272-64.192h233.92v691.2h-233.92z" />
<glyph unicode="&#xe902;" glyph-name="youtube" horiz-adv-x="1463" d="M1432.357 800.11c-17.425 63.18-66.196 111.927-128.102 129.013l-1.287 0.303c-114.030 30.574-571.538 30.574-571.538 30.574s-457.435 0-571.465-30.574c-63.194-17.39-111.965-66.136-129.086-128.029l-0.304-1.288c-19.473-102.227-30.612-219.811-30.612-339.996 0-4.26 0.014-8.516 0.042-12.769l-0.003 0.656c-0.025-3.6-0.039-7.855-0.039-12.113 0-120.187 11.139-237.772 32.442-351.779l-1.83 11.783c17.425-63.18 66.196-111.927 128.102-129.013l1.287-0.303c114.030-30.574 571.465-30.574 571.465-30.574s457.509 0 571.538 30.574c63.194 17.39 111.965 66.136 129.086 128.029l0.304 1.288c19.427 102.229 30.539 219.82 30.539 340.006 0 4.256-0.014 8.509-0.042 12.758l0.003-0.655c0.024 3.595 0.038 7.847 0.038 12.103 0 120.186-11.112 237.777-32.366 351.801l1.827-11.795zM581.851 231.863v432.201l382.318-216.064z" />
<glyph unicode="&#xe903;" glyph-name="twitter" horiz-adv-x="1280" d="M1280 838.784c-44.004-19.421-95.061-33.772-148.481-40.547l-2.751-0.285c54.14 31.974 94.904 81.703 114.675 141.029l0.525 1.819c-47.931-28.514-103.694-50.242-163.036-62.034l-3.364-0.558c-48.27 50.44-116.131 81.792-191.314 81.792-0.106 0-0.212 0-0.319 0h0.016c-0.629 0.005-1.374 0.009-2.119 0.009-143.103 0-259.234-115.484-260.281-258.341l-0.001-0.1c-0.003-0.463-0.005-1.010-0.005-1.559 0-20.344 2.334-40.142 6.748-59.142l-0.344 1.757c-218.026 10.43-410.217 112.868-539.94 269.048l-0.988 1.224c-22.483-37.351-35.816-82.421-35.904-130.599v-0.025c0.334-89.461 46.185-168.141 115.588-214.124l0.956-0.596c-43.643 1.271-84.286 12.974-119.878 32.686l1.35-0.686v-2.816c0.891-125.344 90.133-229.587 208.502-253.604l1.674-0.284c-20.099-5.41-43.175-8.518-66.977-8.518-0.619 0-1.237 0.002-1.854 0.006l0.095-0.001c-1.2-0.022-2.615-0.034-4.033-0.034-16.145 0-31.912 1.62-47.147 4.707l1.516-0.256c35.723-103.847 131.539-177.582 244.903-179.963l0.281-0.005c-88.84-68.753-201.833-110.209-324.51-110.209-0.305 0-0.609 0-0.914 0.001h0.048c-0.968-0.007-2.112-0.011-3.258-0.011-20.98 0-41.655 1.306-61.948 3.842l2.422-0.247c113.364-72.985 251.794-116.355 400.354-116.355 0.753 0 1.506 0.001 2.258 0.003h-0.116c3.216-0.051 7.013-0.079 10.816-0.079 406.239 0 735.607 329.126 736 735.274v0.038c0 11.392-0.384 22.464-0.96 33.408 51.992 36.876 95.718 81.436 130.556 132.54l1.156 1.796z" />
<glyph unicode="&#xe904;" glyph-name="instagram" d="M843.136 717.12c0-33.155-26.877-60.032-60.032-60.032s-60.032 26.877-60.032 60.032c0 33.155 26.877 60.032 60.032 60.032s60.032-26.877 60.032-60.032zM516.544 700.224c-139.299 0-252.224-112.925-252.224-252.224v0c0.036-139.272 112.947-252.16 252.224-252.16v0c139.264 0 252.16 112.896 252.16 252.16v0c0 0.019 0 0.042 0 0.064 0 139.264-112.896 252.16-252.16 252.16v0zM516.544 286.464c-89.214 0-161.536 72.322-161.536 161.536v0c0.036 89.186 72.345 161.472 161.536 161.472v0c89.179 0 161.472-72.293 161.472-161.472v0c-0.073-89.162-72.315-161.427-161.461-161.536h-0.011zM716.352-64.192h-408.768c-169.786 0.218-307.366 137.798-307.584 307.563v409.237c0.218 169.786 137.798 307.366 307.563 307.584h408.789c169.786-0.218 307.366-137.798 307.584-307.563v-408.853c0-169.951-137.663-307.749-307.563-307.968h-0.021zM307.584 863.808c-116.643 0-211.2-94.557-211.2-211.2v0-408.832c0-116.643 94.557-211.2 211.2-211.2v0h408.768c116.643 0 211.2 94.557 211.2 211.2v0 408.832c0 116.643-94.557 211.2-211.2 211.2v0z" />
<glyph unicode="&#xe905;" glyph-name="facebook" horiz-adv-x="448" d="M98.752 444.032v-495.168c0-0.006 0-0.013 0-0.019 0-6.822 5.336-12.397 12.062-12.779l0.034-0.002h173.184c6.788 0.35 12.16 5.94 12.16 12.784 0 0.006 0 0.011 0 0.017v-0.001 503.168h125.504c6.496 0.319 11.7 5.435 12.158 11.863l0.002 0.041 12.096 151.552c0.040 0.378 0.062 0.817 0.062 1.261 0 6.482-4.818 11.839-11.068 12.684l-0.066 0.007h-138.624v107.52c-0.012 0.388-0.019 0.844-0.019 1.302 0 24.007 19.073 43.558 42.892 44.328l0.071 0.002h96.704c6.76 0.384 12.096 5.959 12.096 12.781 0 0.007 0 0.014 0 0.020v-0.001 151.616c0 0.006 0 0.013 0 0.019 0 6.822-5.336 12.397-12.062 12.779l-0.034 0.002h-163.648c-96.608-3.018-173.775-82.056-173.775-179.118 0-1.874 0.029-3.742 0.086-5.602l-0.007 0.272v-146.176h-86.592c-6.788-0.35-12.16-5.94-12.16-12.784 0-0.006 0-0.011 0-0.017v0.001-151.552c0-0.005 0-0.010 0-0.016 0-6.844 5.372-12.434 12.129-12.783l0.031-0.001h86.592z" />
<glyph unicode="&#xe906;" glyph-name="checkmark" horiz-adv-x="1432" d="M616.396-63.902l-616.396 616.298 199.106 199.106 417.29-407.8 616.396 616.396 199.106-199.106z" />
<glyph unicode="&#xe907;" glyph-name="acs" horiz-adv-x="1684" d="M841.759-63.832c-317.385 0-614.989 191.837-838.055 540.367-2.367 3.666-3.774 8.146-3.774 12.954 0 6.093 2.26 11.658 5.986 15.904l-0.023-0.027c70.905 80.423 150.739 150.415 238.642 209.296l4.416 2.785c3.727 2.484 8.307 3.964 13.234 3.964 8.363 0 15.729-4.264 20.045-10.736l0.055-0.088c2.474-3.725 3.948-8.302 3.948-13.222 0-8.362-4.256-15.731-10.721-20.057l-0.087-0.055c-83.775-55.844-156.412-118.534-220.523-189.109l-0.859-0.96c212.67-324.372 491.882-502.825 787.592-502.825s574.921 178.411 787.592 502.825c-139.913 157.648-323.173 273.936-531.082 330.308l-7.644 1.765c111.851-79.296 183.975-208.244 184.009-354.039v-0.005c-0.239-238.972-193.803-432.654-432.707-433.085h-0.041c-239.024 0.287-432.714 193.977-433.001 432.973v0.027c0.038 30.136 3.101 59.533 8.901 87.935l-0.483-2.833c2.179 11.092 11.824 19.344 23.397 19.344 1.7 0 3.358-0.178 4.957-0.517l-0.156 0.028c11.102-2.31 19.324-12.013 19.324-23.635 0-1.675-0.171-3.309-0.496-4.888l0.027 0.156c-4.721-22.769-7.432-48.942-7.45-75.745v-0.013c0.383-212.387 172.561-384.432 384.962-384.6h0.017c212.452 0.24 384.613 172.401 384.852 384.83v0.023c-0.287 212.416-172.43 384.529-384.83 384.768h-0.023c-26.748-0.023-52.845-2.749-78.051-7.921l2.503 0.429c-1.414-0.296-3.038-0.466-4.702-0.466-11.589 0-21.256 8.232-23.471 19.168l-0.026 0.154c-0.293 1.413-0.461 3.036-0.461 4.699 0 11.628 8.216 21.338 19.159 23.641l0.157 0.028c24.569 5.129 52.892 8.182 81.888 8.416l0.184 0.001c0.421 0.026 0.914 0.041 1.41 0.041s0.989-0.015 1.477-0.044l-0.067 0.003c334.77-3.305 633.562-154.549 834.589-391.381l1.32-1.594c3.68-4.119 5.93-9.582 5.934-15.572v-0.464c-0.022-4.792-1.415-9.255-3.805-13.021l0.059 0.1c-223.066-348.362-520.712-540.367-838.097-540.367zM673.407 465.298c0 92.978 75.374 168.352 168.352 168.352v0c92.978 0 168.352-75.374 168.352-168.352v0c0-92.978-75.374-168.352-168.352-168.352v0c-92.978 0-168.352 75.374-168.352 168.352v0zM531.36 598.296v148.192h-148.192c-0.013 0-0.027 0-0.042 0-12.017 0-21.759 9.742-21.759 21.759 0 0 0 0 0 0v0c0 0.013 0 0.027 0 0.042 0 12.017 9.742 21.759 21.759 21.759 0.015 0 0.030 0 0.044 0h148.19v148.192c0 12.017 9.742 21.759 21.759 21.759v0c12.017 0 21.759-9.742 21.759-21.759v0-148.192h148.234c0 0 0 0 0 0 12.017 0 21.759-9.742 21.759-21.759 0-0.015 0-0.030 0-0.044v0.002c0-12.017-9.742-21.759-21.759-21.759v0h-148.234v-148.192c0-12.017-9.742-21.759-21.759-21.759v0c-11.945 0.095-21.591 9.801-21.591 21.759 0 0 0 0 0 0.001v0z" />
<glyph unicode="&#xe908;" glyph-name="warning" horiz-adv-x="285" d="M262.315-63.934h-250.641v216.804h262.315v-216.672zM285.137 846.288l-79.875-502.139h-136.863l-68.399 501.809v114.042h285.269v-114.042z" />
<glyph unicode="&#xe909;" glyph-name="radio-button" d="M512 896c-247.424 0-448-200.576-448-448s200.576-448 448-448c247.424 0 448 200.576 448 448v0c-0.291 247.307-200.694 447.709-447.973 448h-0.027zM512 960c282.77 0 512-229.23 512-512s-229.23-512-512-512c-282.77 0-512 229.23-512 512v0c0 282.77 229.23 512 512 512v0zM768 448c0-141.385-114.615-256-256-256s-256 114.615-256 256c0 141.385 114.615 256 256 256s256-114.615 256-256z" />
<glyph unicode="&#xe90a;" horiz-adv-x="722" d="M363.906 960c-203.208-10.206-364.105-177.451-364.105-382.276 0-4.347 0.072-8.677 0.216-12.989l-0.017 0.627c0-190.523 265.216-523.878 339.248-619.44 5.167-6.243 12.918-10.191 21.59-10.191s16.423 3.948 21.553 10.145l0.038 0.047c80.166 95.562 339.248 435.773 339.248 619.44 0 217.766-160.393 394.637-357.772 394.637z" />
<glyph unicode="&#xe90b;" horiz-adv-x="722" d="M541.258 478.1c0-99.643-80.776-180.419-180.419-180.419s-180.419 80.776-180.419 180.419c0 99.643 80.776 180.419 180.419 180.419s180.419-80.776 180.419-180.419z" />
<glyph unicode="&#xe90c;" glyph-name="email" horiz-adv-x="1528" d="M0-64v960.022l731.971-618.645h64.59l731.928 618.645v-960.022zM86.076 960h1399.353l-710.441-575.978z" />
<glyph unicode="&#xe90d;" glyph-name="zagmaterials" horiz-adv-x="1017" d="M496.55-22.528c16.301 28.331 29.668 61.112 38.398 95.736l0.574 2.688h41.472v-113.574h-88.184c2.018 4.397 4.728 9.577 7.74 15.149zM317.741-37.587c12.86 51.411 37.948 56.29 40.599 56.772 5.516 0.014 10.16 3.733 11.575 8.8l0.020 0.085c2.048 6.355 10.089 31.232 15.059 47.947h25.54c-6.897-13.33-12.927-28.881-17.273-45.12l-0.376-1.653c-4.595-17.265-7.234-37.086-7.234-57.524 0-3.273 0.068-6.531 0.202-9.771l-0.015 0.464zM234.255-9.879c-2.87 13.085-4.514 28.116-4.514 43.531 0 14.996 1.556 29.629 4.515 43.746l-0.242-1.381h54.453v-113.574h-51.381c0.006 0.442 0.009 0.964 0.009 1.487 0 9.239-1.035 18.236-2.995 26.881l0.155-0.811zM29.455-37.587c12.901 43.736 33.65 81.644 60.835 113.958l-0.389-0.475c0.301 0 0.632 0 0.934 0h57.404c-8.537-15.305-15.747-33.032-20.712-51.674l-0.37-1.634c-4.566-17.147-7.189-36.833-7.189-57.131 0-1.091 0.008-2.181 0.023-3.269l-0.002 0.165zM314.85 75.987h42.827c-3.012-9.457-6.596-21.082-10.3-32.949-13.377-4.911-24.457-13.428-32.389-24.376l-0.138-0.2zM26.383 75.987h30.389c-10.58-14.168-20.667-30.206-29.452-47.031l-0.937-1.971zM848.956 819.17v-8.523l-2.65-4.759-7.56-13.011-377.374-653.764v87.341l387.644 671.262zM833.897 731.829l34.093 59c1.090 0.57 2.030 1.231 2.872 1.997l-0.011-0.010h30.509c-21.353-19.817-44.002-40.026-67.674-61.109zM755.592 401.348l-172.785-299.189h-32.136c51.509 116.138 120.412 215.307 204.613 299.122l0.037 0.037zM470.408 102.099l196.849 340.872c5.646 2.415 12.368 4.581 19.317 6.143l0.801 0.151c20.645 3.968 38.657 13.303 53.091 26.489l-0.084-0.076c54.513 49.182 87.853 77.463 117.007 102.008l-60.476-104.719c-116.423-96.824-208.732-218.557-269.334-357.309l-2.418-6.211c-1.57-2.804-3.4-5.219-5.514-7.351l0.002 0.002zM146.703 107.791l-3.825-3.223 1.897-2.47h-32.015c9.035 12.71 20.811 29.304 33.943 48.7zM268.649 216.847c-6.939-13.347-12.972-28.9-17.284-45.154l-0.365-1.618c-4.022-14.991-6.583-32.314-7.1-50.149l-0.008-0.329c-0.151-5.421-0.181-10.752 0-16.474h-67.855c11.575 42.113 33.771 78.072 63.55 106.054l0.119 0.111c2.222 1.851 3.799 4.41 4.384 7.327l0.014 0.082zM440.742 243.14h-30.78c21.082 28.22 44.333 64.482 69 102.822 42.244 67.711 82.659 125.019 125.896 180.003l-3.257-4.297-61.169-105.954zM435.2 108.152v-5h-88.335c2.168 4.638 4.849 9.577 7.891 15.3 16.293 28.332 29.65 61.113 38.369 95.739l0.573 2.686h41.472zM298.526 216.847h68.126c-3.683-14.159-7.463-25.719-11.834-36.983l0.781 2.288c-7.897-20.298-15.992-37.223-25.159-53.463l1.065 2.052c-4.603-7.769-8.999-16.857-12.642-26.319l-0.429-1.269h-48.369c0 2.771-0.151 5.361-0.181 7.831-0.007 0.607-0.010 1.324-0.010 2.042 0 17.916 2.322 35.29 6.682 51.837l-0.317-1.414c0.482 1.867 0.994 3.825 1.476 5.481 5.31 18.194 12.306 34.041 21.064 48.714l-0.524-0.947zM172.936 190.795v26.052h37.075c-13.946-14.951-26.24-31.747-36.404-49.897l-0.67-1.303zM455.529 421.557c4.036 6.536 8.162 13.071 12.348 19.998 47.277 79.992 94.443 148.328 145.821 213.176l-2.973-3.888c0.422 0.361 0.783 0.994 1.175 1.355v0c12.985 15.591 26.097 29.657 39.944 42.964l0.173 0.165c3.012 3.012 6.264 6.024 9.427 8.764s6.234 5.752 9.216 8.403c4.638 4.126 9.035 8.132 13.312 12.047v0c34.786 31.654 56.32 51.531 74.029 68.126l-60.838-105.412-42.165-73.457c-34.111-29.215-64.209-61.406-90.474-96.623l-1.113-1.561c-13.673-18.071-27.106-36.713-40.297-55.597l-15.059-22.347c-12.74-18.944-25.208-38.069-37.376-56.892-4.518-6.927-9.035-13.824-13.432-20.721-26.172-40.538-50.839-78.758-72.282-106.948-2.53-3.343-5.090-6.776-7.71-9.999h-51.2c0.237 0.24 0.504 0.449 0.795 0.622l0.018 0.010c47.22 52.241 89.708 110.453 125.773 172.843l2.619 4.911zM981.564 792.787l-84.661-146.643c-19.034-16.956-35.358-30.72-53.971-46.291-29.877-25.359-63.759-53.82-120.079-104.659-9.88-9.317-22.287-16.059-36.084-19.091l-0.509-0.094 106.225 183.718c15.27 13.764 30.509 27.106 45.417 40.418 36.412 32.105 70.776 62.404 101.466 92.521zM839.499 933.617l-38.039-65.897c-22.046-19.637-36.683-33.129-53.489-48.64-1.777-1.777-3.614-3.584-5.512-5.12-2.771-2.711-5.632-5.301-8.614-8.162-2.048-1.777-4.186-3.765-6.415-6.024-9.035-8.523-19.607-18.071-32.226-29.756-9.336-8.403-19.848-18.071-31.895-29.003v0l-19.426-17.408c-18.557-17.037-35.601-34.893-51.416-53.812l-0.717-0.882c-25.741-31.324-51.569-66.316-75.58-102.616l-2.936-4.724c-20.269-30.539-42.556-65.476-67.674-106.345-73.818-119.989-116.164-176.941-156.25-209.89l1.928-2.289h-31.985c45.47 61.874 89.673 132.244 128.731 205.765l4.539 9.365c11.836 23.221 23.040 46.953 33.129 70.716 27.056 58.761 61.522 109.158 103.015 152.813l-0.224-0.237c36.016 39.157 72.901 75.46 111.512 109.868l1.549 1.356c1.777 1.656 3.524 3.162 5.331 4.819 3.012 2.771 6.024 5.602 9.246 8.162l14.728 13.282c8.433 7.469 16.836 14.818 25.118 22.106 36.442 32.105 70.807 62.584 101.496 92.401zM759.356 933.617c-25.088-23.462-52.314-47.465-80.866-72.584-15.511-13.764-31.352-27.768-47.164-41.954-4.879-4.397-9.728-8.885-14.517-13.282s-9.577-8.644-14.306-13.011c-16.836-15.661-33.491-31.413-49.724-47.526-14.818-14.758-29.274-29.816-43.098-45.176-28.591-30.955-54.733-65.075-77.58-101.473l-1.689-2.885c-2.199-3.644-4.307-7.228-6.355-10.872-7.354-12.469-14.946-27.488-21.631-42.99l-1.047-2.729c-51.448-113.045-109.783-210.289-177.547-300.015l2.864 3.959h-44.122l194.831 337.348c8.162 8.764 32.286 34.936 60.717 66.59 35.599 39.575 77.824 87.883 103.695 121.766 1.747 2.229 3.433 4.518 5.030 6.656 4.126 5.421 8.584 11.234 13.312 17.288 3.403 4.247 6.927 8.644 10.571 13.011s7.198 8.885 10.933 13.282c46.17 54.694 101.436 111.586 102.129 112.399l-2.259 2.108zM515.042 819.17l66.259 114.447h68.367c-22.92-24.094-67.012-71.529-102.069-114.447-3.614-4.638-7.108-8.885-10.481-13.282s-6.897-8.764-10.029-13.011c-0.475-0.519-0.894-1.102-1.241-1.73l-0.024-0.047c-19.968-26.835-53.971-66.47-86.438-103.063l60.536 104.809 7.56 13.011zM469.624 792.877l-113.453-196.518c-0.422-0.482-0.663-0.813-0.693-0.813h0.181l-59.543-103.063c-13.492-8.060-29.296-15.83-45.737-22.338l-2.271-0.793 186.729 323.644zM228.081 434.688c17.55 5.143 32.161 10.604 46.283 16.958l-2.251-0.906-123.482-213.986s0-0.241 0-0.361c-0.287-0.373-0.53-0.8-0.711-1.26l-0.012-0.035c0.003-0.027 0.005-0.059 0.005-0.090s-0.002-0.063-0.006-0.094v0.004c-0.181-0.361-0.331-0.934-0.482-1.295s0-0.361 0-0.482c-0.094-0.323-0.178-0.721-0.235-1.127l-0.006-0.048c0.003-0.054 0.005-0.117 0.005-0.181s-0.002-0.127-0.006-0.189v0.009c0-0.602 0-1.054 0-1.656v0-31.533c-26.504-40.93-49.905-73.879-63.518-92.25-1.054-1.476-2.018-2.65-3.012-4.066h-44.152zM208.715-14.487c1.524-6.073 2.398-13.044 2.398-20.22 0-1.024-0.018-2.043-0.053-3.058l0.004 0.147h-64.723c-0.015 0.934-0.024 2.035-0.024 3.139 0 17.944 2.327 35.344 6.696 51.916l-0.317-1.416c6.010 22.754 14.97 42.71 26.638 60.753l-0.496-0.818h28.823c-2.514-13.001-3.953-27.953-3.953-43.242 0-16.739 1.724-33.075 5.005-48.84l-0.269 1.548zM460.589-37.617h-48.339c-0.131 2.752-0.206 5.978-0.206 9.221 0 18.125 2.339 35.703 6.73 52.45l-0.32-1.436c5.366 20.236 12.94 37.968 22.666 54.267l-0.53-0.958h68.156c-8.793-32.69-20.763-61.272-35.966-87.762l0.939 1.776c-4.646-7.753-9.146-16.842-12.934-26.293l-0.469-1.325zM991.172 757.097v-87.522l-387.674-671.413v87.522l314.007 543.834c1.109 0.847 2.091 1.695 3.019 2.598l-0.008-0.007-0.873 0.934 71.529 124.055zM1017.224 807.906c0 0.241 0 0.482 0 0.693-0.095 0.45-0.219 0.843-0.378 1.218l0.016-0.043c-0.068 0.28-0.141 0.512-0.225 0.737l0.015-0.044c-0.181 0.482-0.361 0.813-0.542 1.295-0.089 0.188-0.18 0.346-0.28 0.496l0.009-0.014s0 0 0 0c-0.271 0.602-0.572 0.934-0.873 1.536 0 0 0 0 0 0s-0.843 0.934-1.295 1.295c-0.18 0.132-0.33 0.292-0.448 0.475l-0.004 0.007c-0.361 0.241-0.663 0.602-1.054 0.873s-0.392 0.241-0.572 0.361c-0.338 0.239-0.726 0.443-1.141 0.592l-0.034 0.011c-0.211 0-0.392 0.361-0.572 0.482s-1.235 0.361-1.867 0.482v0c-0.52 0.303-1.145 0.482-1.812 0.482-0.020 0-0.039 0-0.058 0h0.003c-0.108-0.029-0.233-0.046-0.361-0.046s-0.253 0.017-0.371 0.048l0.010-0.002h-129.717v127.819c-0.010 0.71-0.064 1.398-0.161 2.073l0.010-0.085v0.482c-0.084 0.496-0.199 0.931-0.349 1.351l0.017-0.056c-0.064 0.274-0.136 0.505-0.223 0.729l0.013-0.037-0.542 1.295c-0.106 0.139-0.197 0.298-0.266 0.468l-0.005 0.014s0 0.241 0 0.241c-0.277 0.491-0.576 0.915-0.913 1.306l0.009-0.011c-0.397 0.647-0.825 1.209-1.302 1.724l0.007-0.007-0.452 0.361c-0.408 0.258-0.762 0.526-1.092 0.82l0.008-0.007-0.572 0.361c-0.451 0.218-0.836 0.449-1.199 0.709l0.024-0.016c-0.156 0.131-0.352 0.218-0.568 0.241h-0.005l-1.867 0.693c-0.55 0.129-1.191 0.215-1.848 0.24l-0.019 0.001c-0.104-0.026-0.223-0.041-0.346-0.041s-0.242 0.015-0.357 0.043l0.010-0.002c-0.271 0-0.512 0-0.783 0h-288.467c0 0-0.001 0-0.001 0-4.851 0-9.083-2.655-11.32-6.592l-0.034-0.064-77.583-134.295h-57.525c-4.861-0.044-9.082-2.74-11.29-6.71l-0.034-0.066-413.907-716.8s0 0 0 0-0.512-0.934-0.723-1.416v0c-0.151-0.602-0.331-0.934-0.452-1.536v-0.361c-0.076-0.279-0.15-0.636-0.204-0.999l-0.007-0.055c-0.003-0.054-0.005-0.117-0.005-0.181s0.002-0.127 0.006-0.189v0.009c0-0.693 0-1.054 0-1.656v0-139.776c0-0.027 0-0.059 0-0.090 0-7.264 5.872-13.157 13.128-13.191h577.087c0.065-0.005 0.141-0.007 0.218-0.007 0.454 0 0.886 0.091 1.28 0.256l-0.022-0.008h0.452c0.392 0 0.753 0 1.144 0.241h0.392c0.482 0 0.904 0.361 1.325 0.482v0c0.403 0.276 0.866 0.547 1.349 0.784l0.066 0.029c0.043-0.025 0.095-0.040 0.151-0.040s0.107 0.015 0.152 0.041l-0.001-0.001 1.024 0.693s0.211 0 0.392 0.241 0.632 0.602 0.964 0.813c0.025 0.019 0.056 0.030 0.090 0.030s0.065-0.011 0.091-0.030v0l1.024 1.235 0.271 0.361c0.224 0.403 0.454 0.748 0.707 1.073l-0.014-0.019s0 0.241 0 0.241l408.395 707.223c4.355 2.206 7.287 6.649 7.288 11.776v0 144.113c-0.013 0.736-0.067 1.445-0.161 2.142l0.010-0.094z" />
<glyph unicode="&#xe90e;" glyph-name="kimiska-apstrade" horiz-adv-x="1040" d="M948.97 394.004c-5.25-44.524-19.553-84.821-41.031-120.287l0.749 1.331-3.571-18.677-35.069-40.497-33.533-39.961-56.103-15.070-32.141-38.426-0.429-0.429-0.786-0.893-2.178-2.5-31.712-36.283c-33.965-13.331-74.93-25.5-117.112-34.363l-5.237-0.921-24.070-19.499-30.676 18.427c-13.999 1.107-28.569 2.964-43.39 5.464l-29.748-10.714-33.641 24.463c-21.748 5.642-42.068 11.821-58.96 17.642l-1.214 0.393-0.964 0.321-1.428 0.5-1.607 0.607-2.107 0.679-1.107 0.393-27.355 9.428-2.286 0.821-2.821 0.964h-0.214l-1.893 0.643-1.107 0.357-2.714 0.929c-46.531 18.814-86.704 41.941-123.115 69.744l1.266-0.928-14.642 4.393-8.428 27.748c-13.606 31.605-39.283 66.245-51.389 101.671l-7.785 10.714 1.964 14.785c-0.368 2.862-0.578 6.172-0.578 9.532 0 10.726 2.142 20.951 6.020 30.273l-0.192-0.522-14.285 46.711-21.427 48.782 1.964 51.175 24.284 46.711 13.999 47.318 2.464 54.46 0.5 0.714 0.464 0.714 0.679 1.036 0.607 0.821c0.25 0.429 0.5 0.786 0.786 1.214l1.678 2.571 23.891 36.105c49.711 26.748 63.138 68.959 97.1 100.422l3.857 20.213 30.319 3.785c5.285 3.393 11.035 7.142 16.82 10.714 1.542-2.534 3.73-4.539 6.339-5.817l0.090-0.040c21.341-10.394 39.516-23.879 54.801-40.117l0.088-0.095c-67.727-24.364-121.117-74.416-149.342-138.103l-0.648-1.637c-6.892-11.214-14.035-22.856-21.427-34.069-27.741-43.751-44.207-97.029-44.207-154.153 0-12.201 0.751-24.226 2.21-36.033l-0.142 1.413c-3.571-2.893-7.464-5.714-11.321-8.464 3.656-1.79 7.907-3.258 12.356-4.187l0.357-0.062c0.929-7.142 2.036-14.285 3.571-21.606 11.077-65.042 37.497-122.519 75.416-170.489l-0.599 0.786c30.491-39.873 71.091-70.575 118.009-88.484l1.84-0.617c27.444-12.994 59.447-23.802 92.846-30.816l2.862-0.503-0.321-10.035c-0.393-12.606 4.678-30.569 15.356-27.070-0.304 2.384-0.477 5.142-0.477 7.941 0 9.635 2.056 18.789 5.752 27.048l-0.168-0.42c5.142-0.429 10.285-0.679 15.427-0.679 4.143 0 8.285 0 12.428 0.429 36.64 2.607 73.602 6.678 109.921 11.999 49.058 2.755 93.116 22.159 127.080 52.597l-0.196-0.172c8.658 9.817 16.568 20.718 23.392 32.333l0.535 0.986c5.771 9.754 11.596 18.116 17.966 26.021l-0.324-0.416c9.304 10.199 19.373 19.373 30.228 27.561l0.556 0.402c12.309 9.383 23.21 19.276 33.21 30.019l0.145 0.158c16.618 19.751 29.28 43.42 36.409 69.38l0.303 1.294c4.689 15.106 8.454 33.022 10.581 51.438l0.133 1.416c1.786 0 3.571 0 5.285 0 39.069 1.821 22.677 16.427-3.321 29.819 0.035 1.725 0.054 3.759 0.054 5.798 0 43.020-8.778 83.99-24.64 121.216l0.766-2.022c-26.388 54.954-58.158 102.264-95.667 144.346l0.531-0.606c-13.254 17.436-27.563 32.798-43.257 46.626l-0.347 0.299c-20.361 15.658-43.56 29.307-68.368 39.916l-2.091 0.795c-31.935 17.537-69.12 30.369-108.55 36.37l-1.87 0.234c-5.232 0.417-11.328 0.654-17.48 0.654-18.739 0-36.963-2.204-54.428-6.367l1.591 0.32c2.204 11.291 3.668 24.49 4.063 37.956l0.008 0.363c2.599 10.27 5.52 18.943 9.010 27.319l-0.475-1.285c12.258-1.132 23.225-2.847 33.958-5.189l-1.817 0.333 1.464-0.321c10.714-1.893 2.571-4.5 13.392-7.142l24.998-5.285h0.679l1.25-0.25h0.786c0.857-0.179 1.893-0.357 3.107-0.536h0.643l3.964-0.679 2.357-0.393 1.571-0.25 2.393-0.393 7.142-1.25 2.321-0.393 5.928-1.036 2.214-0.357 2.071-0.357 6.357-1.143 2.786-0.464 2.393-0.429 1.357-0.214 48.925-12.071 53.211-7.142 0.929-1.5 0.714-1.143 1.536-2.464c7.678-12.356 26.748-42.854 26.927-43.283v0l34.962-23.748c16.543-3.513 31.059-8.3 44.831-14.453l-1.405 0.561 20.177-5.321 0.214-34.855c2.526-13.601 7.87-25.638 15.421-35.958l-0.172 0.246 42.64-17.856 20.284-48.818 3.571-17.392c2.489-6.534 4.106-14.090 4.493-21.969l0.007-0.173 2.464-12.142 1.464-52.211-15.963-32.498c0.914-5.477 2.155-10.284 3.763-14.919l-0.192 0.635c6.107-18.642 17.213-33.998 23.141-50.639l4.928-6.428-2.178-3.107c0.802-3.484 1.281-7.496 1.321-11.614v-0.028zM838.691 460.249c-9.392 2.428-18.82 4.535-28.284 6.607 0.168 3.558 0.264 7.728 0.264 11.921 0 7.619-0.316 15.165-0.936 22.624l0.065-0.976c-0.845 29.651-11.219 56.725-28.15 78.435l0.223-0.298c-3.25 3.857-6.678 7.142-9.999 10.714-3.712 3.557-7.138 7.334-10.287 11.338l-0.176 0.232c-3.855 5.693-7.3 12.211-10.011 19.098l-0.238 0.686c-1.107 2.536-2.214 5.035-3.393 7.571-43.101 80.378-125.521 134.703-220.853 137.269l-0.346 0.007c-2.724 0.192-5.904 0.301-9.109 0.301-12.739 0-25.074-1.726-36.786-4.957l0.969 0.228c-0.893 5.071-1.678 10.071-2.357 14.999 0 0 0 0 0 0-0.286 2.036-0.571 4.071-0.786 6.035-0.009 0.032-0.014 0.069-0.014 0.107s0.005 0.075 0.014 0.11l-0.001-0.003c-0.25 2-0.5 3.928-0.714 5.857v0c-0.214 1.75-0.393 3.571-0.571 5.178 0.005 0.085 0.007 0.185 0.007 0.286s-0.003 0.2-0.008 0.3l0.001-0.014c16.459 4.633 35.36 7.297 54.883 7.297 5.154 0 10.265-0.186 15.326-0.551l-0.679 0.039c37.447-5.945 71.090-17.766 101.586-34.589l-1.593 0.806c24.392-10.36 45.42-22.615 64.653-37.122l-0.765 0.553c14.402-12.843 27.291-26.774 38.756-41.847l0.527-0.722c35.134-39.334 65.385-84.152 89.109-132.74l1.527-3.465c12.571-29.258 20.346-63.237 21.417-98.9l0.010-0.414c-6.035 2.605-13.779 5.377-21.704 7.731l-1.616 0.412zM485.145 138.2c1.37 6.846 2.154 14.716 2.154 22.769 0 1.575-0.030 3.143-0.089 4.704l0.007-0.225c15.285-0.75 30.534-0.75 45.604-0.75h4.357c3.535-0.234 7.663-0.367 11.823-0.367 26.187 0 51.141 5.28 73.855 14.834l-1.255-0.468c19.562 10.997 36.246 24.484 50.366 40.307l0.167 0.19c45.147 41.097 83.025 89.178 112.145 142.713l1.418 2.849c9.646 20.405 17.111 44.093 21.212 68.917l0.215 1.578c14.699-7.474 32.319-14.735 50.54-20.665l2.706-0.762c-2.045-18.364-5.524-34.99-10.409-51.002l0.517 1.97c-6.117-22.762-16.565-42.554-30.491-59.361l0.207 0.258c-8.974-9.548-18.613-18.235-28.926-26.081l-0.572-0.417c-22.739-16.175-41.314-36.677-54.834-60.43l-0.483-0.923c-6.305-10.808-13.034-20.153-20.548-28.796l0.193 0.226c-29.284-24.918-66.964-40.771-108.277-42.837l-0.43-0.017c-35.712-5.285-71.745-9.214-107.6-11.785-4.857-0.357-9.714-0.393-14.606-0.25 0.286 1.357 0.607 2.5 0.893 3.928zM198.343 421.752c1.786 0.75 6.642 2.536 12.249 4.535 2.548-41.008 13.655-78.895 31.544-112.635l-0.725 1.499c12.459-29.874 32.572-54.466 57.922-72.035l0.538-0.353c32.829-27.19 70.948-49.521 112.364-65.127l2.735-0.904c11.293-3.572 24.799-6.56 38.668-8.399l1.258-0.136c-0.286-10.106-0.607-20.213-0.893-30.355-32.238 7.367-60.43 17.185-87.123 29.674l2.629-1.105c-43.634 16.121-79.976 43.374-106.719 78.356l-0.416 0.567c-34.76 43.61-59.293 96.867-69.108 155.122l-0.28 2.010c-1.036 5.571-1.928 11.178-2.714 16.713 3.125 0.803 5.776 1.719 8.33 2.819l-0.366-0.14zM489.252 215.838c0.75 2.928 1.714 5.785 2.75 8.607 14.372-3.308 30.892-5.23 47.851-5.285h0.038c1.235-0.032 2.688-0.051 4.146-0.051 38.266 0 73.566 12.697 101.917 34.108l-0.428-0.309c26.146 23.589 47.361 52.082 62.286 84.098l0.674 1.61c20.9 32.753 35.6 71.493 41.429 113.078l0.175 1.521c0 1.857 0.214 3.571 0.25 5.571 4.964-1.678 9.928-3.357 14.856-5.178 4.214-1.571 8.499-3.285 12.821-5.107-3.425-26.304-10.567-50.174-20.944-72.22l0.624 1.475c-28.926-52.982-64.758-98.151-107.014-136.346l-0.443-0.394c-11.96-13.547-25.876-25.006-41.382-34.035l-0.794-0.427c-18.193-7.128-39.259-11.259-61.29-11.259-4.824 0-9.601 0.198-14.324 0.586l0.62-0.041c-15.285 0-30.784 0-46.14 0.857 0.071 6.869 0.848 13.516 2.261 19.925l-0.119-0.641zM272.802 435.858c-0.464-2.428-0.929-4.821-1.321-7.142-1.386-6.773-2.18-14.558-2.18-22.528 0-26.226 8.593-50.445 23.116-69.995l-0.223 0.315c11.796-13.291 25.426-24.601 40.572-33.637l0.783-0.433c36.702-26.594 78.626-49.809 123.268-67.676l3.937-1.391c-0.214-0.893-0.5-1.786-0.714-2.678-2.049-9.153-3.48-19.888-3.984-30.864l-0.015-0.419c-12.273 1.755-23.128 4.249-33.629 7.545l1.488-0.403c-40.595 15.423-75.627 36.144-106.405 61.796l0.591-0.479c-22.078 15.068-39.108 36.066-48.966 60.708l-0.316 0.895c-16.431 30.786-26.457 67.189-27.385 105.844l-0.006 0.291c7.035 0.179 18.249 0.321 31.212 0.393zM709.522 496.568c-6.327 0.511-13.697 0.803-21.136 0.803-2.928 0-5.846-0.045-8.752-0.135l0.425 0.010c-0.36 11.871-2.714 23.087-6.734 33.473l0.235-0.689c-7.805 16.375-19.072 29.977-32.928 40.295l-0.283 0.202c-34.196 30.042-78.815 48.959-127.805 50.736l-0.364 0.010c0.179 4.071 0.321 7.535 0.393 10.071 0.002 0.086 0.003 0.187 0.003 0.289 0 1.655-0.249 3.251-0.711 4.754l0.030-0.114c0 0.214-0.179 0.643-0.357 1.214s-0.214 0.643-0.321 1c0.008 0.059 0.012 0.127 0.012 0.196s-0.004 0.137-0.013 0.204l0.001-0.008-0.5 1.75c-1.678 5.857-4.893 16.999-8.642 31.069 20.107-1.052 38.995-4.58 56.908-10.295l-1.591 0.438c68.934-21.619 123.19-72.132 149.424-136.981l0.565-1.581c3.107-7.697 6.029-17.052 8.243-26.676l0.256-1.322c-1.901 0.662-4.118 1.154-6.413 1.383l-0.123 0.010zM302.050 423.823c0.643 4.107 1.5 8.178 2.5 12.249 9.999 0 19.963 0.179 29.034 0.429-0.821-4.35-1.291-9.354-1.291-14.468 0-1.506 0.041-3.002 0.121-4.487l-0.009 0.207c2.357-45.854 41.426-75.53 83.28-100.814 18.489-12.235 39.705-22.991 62.147-31.207l2.135-0.684c-2.964-7.499-6.107-14.963-9.178-22.427-45.912 18.432-85.514 40.481-121.847 66.769l1.642-1.131c-13.13 7.725-24.394 16.875-34.115 27.463l-0.096 0.106c-10.205 14.070-16.325 31.681-16.325 50.722 0 6.152 0.639 12.155 1.854 17.947l-0.099-0.566zM471.646 541.386v0l0.5-0.5c0.557-0.673 1.13-1.279 1.738-1.846l0.012-0.011c-6.307-1.746-11.797-4.608-16.517-8.39l0.090 0.070c-7.617-6.835-13.873-15.008-18.431-24.174l-0.21-0.468c-6.263-10.289-12.257-22.288-17.265-34.79l-0.591-1.672c-14.26-0.157-28.122-1.099-41.752-2.788l1.79 0.181c4.107 5.964 8.607 11.963 13.178 18.070 11.435 13.949 21.585 29.708 29.831 46.569l0.631 1.428c2.643 6.107 4.857 12.428 7.142 18.534 5.714 16.392 10.714 30.605 21.427 36.39l0.714-1.893 1.178-3.107c1-2.571 1.964-5.178 2.964-7.749 0.357-1 0.75-2.036 1.143-2.964s0.929-2.393 1.393-3.571c3.036-7.928 6.071-15.785 9.107-23.427v0c0.499-1.241 1.099-2.312 1.815-3.292l-0.029 0.042zM471.217 460.678c-5.198 2.491-11.253 4.549-17.578 5.872l-0.528 0.092c3.571 8.285 8.214 16.463 12.642 24.427 2.94 6.061 6.684 11.242 11.172 15.671l0.006 0.006c4.338 2.666 9.593 4.246 15.217 4.246 0.866 0 1.724-0.037 2.571-0.111l-0.11 0.008c18.698-0.773 36.149-5.354 51.845-12.983l-0.777 0.341c26.605-12.035 45.533-29.355 45.997-41.961 0.375-2.458 0.589-5.294 0.589-8.18 0-7.912-1.608-15.448-4.515-22.3l0.141 0.374c-4.598-6.229-10.516-11.221-17.363-14.624l-0.279-0.125-5.071-2.893c-14.26-10.338-32.011-16.677-51.224-17.069l-0.094-0.002c-3.102-0.498-6.677-0.783-10.319-0.783-22.028 0-41.623 10.414-54.131 26.588l-0.117 0.158c-2.489 5.597-3.938 12.126-3.938 18.995 0 4.526 0.629 8.905 1.805 13.054l-0.082-0.337c9.132 2.933 17.073 6.887 24.272 11.843l-0.309-0.201zM431.648 343.436c-34.533 20.856-66.745 44.497-68.424 75.959-0.030 0.66-0.046 1.434-0.046 2.212 0 5.782 0.932 11.346 2.653 16.551l-0.107-0.372c15.499 0.75 32.569 1.786 49.032 4.178-0.198-2.017-0.311-4.361-0.311-6.731 0-11.471 2.645-22.325 7.358-31.984l-0.19 0.432c16.214-26.073 44.707-43.171 77.194-43.171 1.223 0 2.441 0.024 3.653 0.072l-0.174-0.005c-5.392-14.499-8.928-30.391-12.999-45.961-22.112 8.128-41.187 17.878-58.861 29.576l1.044-0.649zM507.536 575.134c0.214 1.357 0.429 2.786 0.679 4.214 0.536 3.571 1.107 7.392 1.536 11.106 42.802-1.087 81.569-17.516 111.198-43.967l-0.17 0.149c10.161-7.384 18.341-16.877 24.006-27.878l0.207-0.442c2.944-8.706 4.643-18.734 4.643-29.158 0-0.911-0.013-1.818-0.039-2.723l0.003 0.133q0.25-7.428 0.393-15.035c-0.929-0.61-2.029-1.24-3.165-1.806l-0.192-0.087 3.393 0.214c0.714-46.425-3.571-94.993-35.355-123.42-13.092-10.616-28.356-19.212-44.938-24.998l-1.059-0.322c-13.826-6.221-29.879-10.382-46.744-11.615l-0.467-0.027h-1.107c0.45 3.38 0.706 7.289 0.706 11.257 0 14.471-3.413 28.144-9.477 40.26l0.236-0.52h3.571c24.387 0.628 46.837 8.417 65.465 21.331l-0.398-0.261 5.035 2.893c11.935 6.098 21.721 14.889 28.825 25.613l0.173 0.278c5.455 10.82 8.65 23.582 8.65 37.091 0 3.466-0.21 6.882-0.619 10.238l0.040-0.403c-0.964 25.463-24.998 51.211-64.281 68.959-18.095 8.673-39.209 14.225-61.486 15.375l-0.403 0.017 0.214 0.25c5.719 9.59 9.551 20.939 10.689 33.070l0.024 0.32zM428.97 654.2q2.786-7.964 5.607-15.82 2.071-5.75 4.107-11.499c1.178-3.25 2.393-6.535 3.571-9.749l-0.464-0.179c-20.041-11.886-34.445-31.485-39.191-54.606l-0.091-0.533c-2.036-5.857-3.964-11.356-6.142-16.392-7.874-15.885-16.803-29.574-27.114-42.079l0.295 0.368c-9.844-12.193-18.929-25.861-26.7-40.339l-0.691-1.408c-10.499-1.428-20.82-2.786-30.676-3.821 5.107 13.856 11.428 27.534 17.642 40.89l52.639 113.242c9.501 20.472 25.425 36.627 45.144 46.178l0.567 0.248c0.286-1.428 0.821-2.928 1.321-4.393zM719.164 455.249c-5.906-38.432-19.264-72.856-38.597-103.092l0.636 1.063c-13.642-29.755-32.147-55.014-54.764-75.884l-0.161-0.147c-24.225-17.285-54.435-27.636-87.062-27.636-11.903 0-23.485 1.378-34.594 3.983l1.022-0.202c0.857 1.786 1.75 3.571 2.536 5.464 2.45 5.489 4.793 12.13 6.632 18.978l0.225 0.985c1.393 0 2.786 0 4.178 0h2.964c21.090 1.395 40.682 6.304 58.699 14.152l-1.132-0.439c21.303 7.466 39.713 18.026 55.754 31.342l-0.294-0.237c41.247 36.89 46.425 93.958 45.675 147.49 13.745-0.223 27.011-1.643 39.884-4.16l-1.422 0.232c-0.071-4.035-0.107-7.999-0.357-11.821zM417.292 688.090c-28.261-12.796-50.497-34.766-63.311-62.041l-0.328-0.776-52.675-113.242c-7.654-15.063-15.381-33.415-21.897-52.331l-0.959-3.201h-0.25c-11.748 2.927-22.058 7.041-31.624 12.335l0.662-0.336c0.286 0.857 0.571 1.643 0.893 2.464 11.578 28.069 22.806 51.010 35.25 73.177l-1.752-3.396c10.714 20.141 21.641 40.961 30.748 62.531 2.75 6.535 5.357 13.213 7.892 19.677 7.792 23.382 18.637 43.672 32.308 61.7l-0.382-0.525c11.066 12.49 27.145 20.323 45.055 20.323 0.758 0 1.513-0.014 2.265-0.042l-0.109 0.003c4 0.429 8.035 0.893 12.249 1.5 1.786-5.892 3.785-11.928 5.785-17.749zM779.838 473.82c-10.285 2.464-20.463 5.214-30.569 8.607-2.436 19.378-7.075 36.974-13.724 53.546l0.511-1.442c-30.263 75.277-91.642 132.551-167.776 156.616l-1.891 0.516c-21.588 7.021-46.447 11.205-72.24 11.498l-0.147 0.001c-0.179 0.714-0.357 1.464-0.5 2.178-0.714 2.786-1.357 5.642-2.036 8.535-0.25 1.036-0.464 2.036-0.75 3.071-0.786 3.571-1.571 7.142-2.321 10.714-0.214 1.036-0.464 2.107-0.679 3.143 8.896 2.679 19.119 4.221 29.701 4.221 2.605 0 5.188-0.093 7.746-0.277l-0.343 0.020c84.061-1.739 156.693-49.015 194.394-118.093l0.592-1.185c1.071-2.286 2.107-4.643 3.107-7.142 3.944-9.84 8.524-18.306 13.932-26.158l-0.29 0.445c4.311-5.556 8.755-10.498 13.529-15.102l0.042-0.040c3.036-3 5.857-5.821 8.249-8.678 12.619-16.737 20.35-37.783 20.747-60.618l0.001-0.093c0.42-5.295 0.66-11.465 0.66-17.691 0-2.281-0.032-4.553-0.096-6.819l0.007 0.333zM225.841 602.739c7.678 11.606 14.928 23.463 21.963 34.962 22.86 45.72 56.351 83.149 97.363 110.055l1.059 0.652c12.211 6.685 26.688 13.146 41.702 18.475l2.153 0.666 0.357-0.679c0.321-0.571 0.607-1.143 0.857-1.786 0.714-1.393 1.357-2.821 1.928-4.285l0.393-1c0.643-1.607 1.25-3.25 1.75-4.857 2-6.357 4.035-12.749 6.107-19.142l-5.785-0.643c-26.878-0.121-50.951-12.030-67.332-30.819l-0.092-0.107c-15.536-19.975-28.155-43.188-36.653-68.3l-0.487-1.659c-2.464-6.321-5.035-12.785-7.607-18.963-8.607-20.391-19.284-40.533-29.605-60.103-11.194-19.674-22.927-43.698-33.281-68.441l-1.717-4.625c-1.786-4.44-3.48-9.857-4.774-15.426l-0.154-0.787c-10.152-3.487-18.948-7.897-27.024-13.298l0.419 0.264c-0.286 4.506-0.448 9.771-0.448 15.074 0 50.019 14.484 96.655 39.486 135.944l-0.612-1.028zM991.038 461.856l30.391 61.781-1.786 63.246-12.749 62.567-24.605 59.103-69.888 29.462-0.464 77.923-69.781 18.32-49.604 33.748-36.426 58.567-64.281 8.571-59.246 14.606-59.746 10.356-67.424-3.571-0.429-0.786c-1.431 0.489-3.080 0.772-4.795 0.772-2.795 0-5.415-0.75-7.67-2.061l0.073 0.039c-4-2.286-11.392-6.535-26.748-44.854-5.645-12.628-10.383-27.416-13.482-42.798l-0.232-1.378c-0.467-13.542-1.966-26.407-4.43-38.926l0.252 1.536c-1.502-6.914-2.467-14.94-2.675-23.154l-0.003-0.166c0.179-4.821 0.571-9.928 1.071-15.178 0.214-2.178 0.464-4.321 0.714-6.535 0.714-6.214 1.607-12.678 2.607-19.284 0-0.821 0.25-1.678 0.429-2.464 0.893-5.571 1.893-11.214 2.964-16.892 0.393-2.071 0.786-4.143 1.214-6.25 0.004-0.027 0.006-0.058 0.006-0.089s-0.002-0.062-0.006-0.093v0.004c0.321-1.643 0.679-3.214 0.964-4.857 0-0.5 0-0.929 0.286-1.428 0.607-3.071 1.25-6.142 1.928-9.142 0-0.536 0.214-1.036 0.321-1.571 1.321-6.071 2.678-12.106 4.071-17.856l0.393-1.607c0-0.357 0-0.714 0.286-1.107 1.607-7.142 3.285-13.678 4.928-20.034 0.714-2.857 1.428-5.607 2.143-8.249 0-0.214 0-0.393 0-0.643 0.393-1.5 0.75-2.964 1.178-4.393 4.785-17.856 8.785-31.641 10.392-37.105 0 0 0-0.179 0-0.286 0-1.178 0-2.428 0-3.571 0-2.286-0.214-4.643-0.357-7.142 0-0.393 0-0.75 0-1.178 0-3.036-0.393-6.107-0.643-9.142 0-0.179 0-0.357 0-0.536 0-1.214-0.179-2.393-0.286-3.571l-0.5 1.321c-3.571 9.285-6.892 18.57-10.285 27.927v0l-0.929 2.571c-1.786 5-3.571 10.035-5.357 15.035-2.821 7.928-5.607 15.785-8.357 23.748q-4.571 13.106-8.999 26.355c-2.286 6.714-4.5 13.463-6.75 20.177-0.75 2.25-1.5 4.535-2.25 6.785 0 0 0 0 0 0.214q-5.857 17.856-11.463 35.712c-0.643 2.036-1.357 4.071-2.143 6.035 0 0.357-0.25 0.679-0.357 1-0.75 1.893-1.536 3.571-2.428 5.642-0.179 0.429-0.429 0.929-0.679 1.393-0.857 1.821-1.75 3.571-2.714 5.428l-0.786 1.393c-0.893 1.678-1.857 3.285-2.821 4.893l-0.607 1-2.5 3.893c-0.102 0.107-0.196 0.224-0.28 0.348l-0.006 0.009c-14.899 21.154-33.291 38.749-54.506 52.318l-0.776 0.464c0.929 0 1.393 0 1.071 0.286-24.019 18.51-45.099 38.82-63.763 61.213l-0.518 0.639-25.32-2.571h-26.177c-0.053 0.001-0.116 0.001-0.179 0.001-3.75 0-7.184-1.35-9.843-3.591l0.023 0.019-20.606-2.071-15.249-79.959-48.425-34.569-58.567-31.498-34.64-52.282-2.964-65.96-16.999-57.353-29.391-56.567-2.393-61.889 25.998-59.103 17.32-56.532-8.749-65.567 36.747-50.246 25.677-55.21 19.463-64.103 67.174-20.32 44.068-41.319 54.032-27.034 56.567-19.499 58.032-11.642 54.103-39.283 61.924 22.463 63.817-38.319 54.853 44.461 60.353 9.249 62.103 12.642 42.426 48.568 39.283 46.425 67.852 18.213 40.604 48.425 42.426 49.032 12.856 64.281 2.036 64.067 39.283 56.353-49.675 63.781z" />
<glyph unicode="&#xe90f;" glyph-name="radio-button-unchecked" d="M512 896c-247.424 0-448-200.576-448-448s200.576-448 448-448c247.424 0 448 200.576 448 448v0c-0.291 247.307-200.694 447.709-447.973 448h-0.027zM512 960c282.77 0 512-229.23 512-512s-229.23-512-512-512c-282.77 0-512 229.23-512 512v0c0 282.77 229.23 512 512 512v0z" />
<glyph unicode="&#xe910;" d="M1024 448c0-282.77-229.23-512-512-512s-512 229.23-512 512c0 282.77 229.23 512 512 512s512-229.23 512-512z" />
<glyph unicode="&#xe911;" d="M716.752 576.533c21.047 21.047 21.047 55.171 0 76.219v0c-21.047 21.047-55.171 21.047-76.219 0v0l-334.052-334.052c-21.047-21.047-21.047-55.171 0-76.219v0c21.047-21.047 55.171-21.047 76.219 0v0zM382.658 652.752c-21.047 21.047-55.171 21.047-76.219 0v0c-21.047-21.047-21.047-55.171 0-76.219v0l334.052-334.052c21.047-21.047 55.171-21.047 76.219 0v0c21.047 21.047 21.047 55.171 0 76.219v0z" />
</font></defs></svg>